…
```
## The following objects are masked from 'package:base':
## 
##     intersect, setdiff, setequal, union
```

```
CL <- Clusters %>% group_by(.data$Cluster_Label) %>% top_n(5, .data$Occurrences)
CL
```

```
## # A tibble: 25 × 5
## # Groups:   Cluster_Label [5]
##    Occurrences Words                   Cluster Color     Cluster_Label
##          <dbl> <chr>                     <dbl> <chr>     <chr>        
##  1          73 h-index                       1 [[E41A1C80]] h-index      
##  2          34 bibliometric indicators       1 [[E41A1C80]] h-index      
##  3          33 hirsch-index                  1 [[E41A1C80]] h-index      
##  4          32 citations                     1 [[E41A1C80]] h-index      
##  5          27 output                        1 [[E41A1C80]] h-index      
##  6          45 networks                      2 [[377EB880]] networks     
##  7          40 patterns                      2 [[377EB880]] networks     
##  8          31 citation                      2 [[377EB880]] networks     
##  9          29 productivity                  2 [[377EB880]] networks     
## 10          28 model                         2 [[377EB880]] networks     
## # … with 15 more rows
```
…
